{
  "entry": {
    "dll": [
      "lodash"
    ]
  },
  "output": {
    "path": "C:\\_dev\\2017\\kodix\\_libs\\build-system\\build",
    "publicPath": "/",
    "filename": "bundle.[name].js",
    "library": "dll"
  },
  "module": {
    "rules": [
      {
        "test": {},
        "use": [
          {
            "loader": "url-loader",
            "options": {
              "limit": 100,
              "name": "fonts/[name].[ext]"
            }
          }
        ]
      },
      {
        "test": {},
        "use": [
          {
            "loader": "url-loader",
            "options": {
              "limit": 100,
              "name": "images/[name].[hash].[ext]"
            }
          }
        ]
      },
      {
        "test": "C:\\_dev\\2017\\kodix\\_libs\\build-system\\node_modules\\jquery\\dist\\jquery.js",
        "use": [
          {
            "loader": "expose-loader",
            "query": "jQuery"
          },
          {
            "loader": "expose-loader",
            "query": "$"
          }
        ]
      },
      {
        "test": {},
        "exclude": {},
        "use": [
          "imports-loader?$=jquery,jQuery=jquery",
          {
            "loader": "babel-loader",
            "options": {
              "presets": [
                "es2015"
              ]
            }
          }
        ]
      },
      {
        "test": {},
        "use": [
          {
            "loader": "modernizr-loader"
          }
        ]
      },
      {
        "test": {},
        "use": [
          {
            "loader": "modernizr-loader"
          },
          {
            "loader": "json-loader"
          }
        ]
      },
      {
        "test": {},
        "loader": "pug-loader",
        "options": {
          "pretty": true,
          "root": "C:\\_dev\\2017\\kodix\\_libs\\build-system\\src"
        }
      },
      {
        "test": {},
        "use": [
          {
            "loader": "C:\\_dev\\2017\\kodix\\_libs\\build-system\\node_modules\\extract-text-webpack-plugin\\loader.js",
            "options": {
              "id": 2,
              "omit": 1,
              "remove": true
            }
          },
          {
            "loader": "style-loader"
          },
          {
            "loader": "css-loader",
            "options": {
              "sourceMap": false,
              "minimize": false
            }
          },
          {
            "loader": "postcss-loader",
            "options": {
              "plugins": [
                null
              ]
            }
          },
          {
            "loader": "resolve-url-loader"
          },
          {
            "loader": "sass-loader",
            "options": {
              "sourceMap": true,
              "data": "$env: development;"
            }
          }
        ]
      }
    ]
  },
  "plugins": [
    {
      "options": {
        "name": "dll",
        "path": "C:\\_dev\\2017\\kodix\\_libs\\build-system\\build\\[name]-manifest.json"
      }
    },
    {
      "options": {
        "path": "C:\\_dev\\2017\\kodix\\_libs\\build-system\\build",
        "filename": "assets-dlls.json",
        "prettyPrint": true,
        "update": false,
        "fullPath": true
      }
    },
    {
      "paths": [
        "build/"
      ],
      "options": {
        "root": "C:\\_dev\\2017\\kodix\\_libs\\build-system",
        "verbose": true,
        "dry": false,
        "allowExternal": false
      }
    },
    {
      "filename": "css/[name].css",
      "id": 2,
      "options": {
        "allChunks": true,
        "disable": true
      }
    }
  ],
  "devtool": "cheap-module-eval-source-map",
  "resolve": {
    "extensions": [
      ".webpack.js",
      ".web.js",
      ".js",
      ".jsx",
      ".scss",
      ".ts"
    ],
    "alias": {
      "bourbon": "C:\\_dev\\2017\\kodix\\_libs\\build-system\\node_modules\\bourbon\\app\\assets\\stylesheets\\_bourbon.scss",
      "bourbon-neat": "C:\\_dev\\2017\\kodix\\_libs\\build-system\\node_modules\\bourbon-neat\\app\\assets\\stylesheets\\_neat.scss",
      "neat-helpers": "C:\\_dev\\2017\\kodix\\_libs\\build-system\\node_modules\\bourbon-neat\\app\\assets\\stylesheets\\_neat-helpers.scss",
      "normalize-css": "C:\\_dev\\2017\\kodix\\_libs\\build-system\\node_modules\\node-normalize-scss\\_normalize.scss",
      "reset-css": "C:\\_dev\\2017\\kodix\\_libs\\build-system\\node_modules\\node-reset-scss\\scss\\_reset.scss",
      "modernizr$": "C:\\_dev\\2017\\kodix\\_libs\\build-system\\.modernizrrc"
    }
  }
}